module otp-service

go 1.17

require (
	github.com/gin-gonic/gin v1.7.7
	github.com/go-playground/validator/v10 v10.10.0
	github.com/google/uuid v1.3.0
	github.com/pkg/errors v0.9.1
	github.com/spf13/viper v1.10.1
	go.mongodb.org/mongo-driver v1.8.2
	golang.org/x/crypto v0.0.0-20220112180741-5e0467b6c7ce // indirect
	golang.org/x/net v0.0.0-20211112202133-69e39bad7dc2
	golang.org/x/sys v0.0.0-20220114195835-da31bd327af9 // indirect
)

require (
	github.com/boombuler/barcode v1.0.1-0.20190219062509-6c824513bacc // indirect
	github.com/cespare/xxhash/v2 v2.1.2 // indirect
	github.com/dgryski/go-rendezvous v0.0.0-20200823014737-9f7001d12a5f // indirect
	github.com/fsnotify/fsnotify v1.5.1 // indirect
	github.com/gin-contrib/sse v0.1.0 // indirect
	github.com/go-playground/locales v0.14.0 // indirect
	github.com/go-playground/universal-translator v0.18.0 // indirect
	github.com/go-redis/redis/v8 v8.11.4 // indirect
	github.com/go-stack/stack v1.8.0 // indirect
	github.com/golang/protobuf v1.5.2 // indirect
	github.com/golang/snappy v0.0.3 // indirect
	github.com/hashicorp/hcl v1.0.0 // indirect
	github.com/json-iterator/go v1.1.12 // indirect
	github.com/klauspost/compress v1.13.6 // indirect
	github.com/leodido/go-urn v1.2.1 // indirect
	github.com/magiconair/properties v1.8.5 // indirect
	github.com/mattn/go-isatty v0.0.14 // indirect
	github.com/mitchellh/mapstructure v1.4.3 // indirect
	github.com/modern-go/concurrent v0.0.0-20180306012644-bacd9c7ef1dd // indirect
	github.com/modern-go/reflect2 v1.0.2 // indirect
	github.com/pelletier/go-toml v1.9.4 // indirect
	github.com/pquerna/otp v1.3.0 // indirect
	github.com/spf13/afero v1.6.0 // indirect
	github.com/spf13/cast v1.4.1 // indirect
	github.com/spf13/jwalterweatherman v1.1.0 // indirect
	github.com/spf13/pflag v1.0.5 // indirect
	github.com/subosito/gotenv v1.2.0 // indirect
	github.com/ugorji/go/codec v1.2.6 // indirect
	github.com/xdg-go/pbkdf2 v1.0.0 // indirect
	github.com/xdg-go/scram v1.0.2 // indirect
	github.com/xdg-go/stringprep v1.0.2 // indirect
	github.com/youmark/pkcs8 v0.0.0-20181117223130-1be2e3e5546d // indirect
	golang.org/x/sync v0.0.0-20210220032951-036812b2e83c // indirect
	golang.org/x/text v0.3.7 // indirect
	google.golang.org/protobuf v1.27.1 // indirect
	gopkg.in/ini.v1 v1.66.2 // indirect
	gopkg.in/yaml.v2 v2.4.0 // indirect
)
